Generations,Best chromosome,Best fitness,Avg fitness
100,027010097096042002028009094055,17.190000,13.619000
200,000028096056097000055002037069,20.260000,19.041000
300,004017092002099000078000008080,20.630000,20.117000
400,000016099002096000077002006088,21.150000,20.760000
500,000019099002099000096005009020,21.120000,20.684000
600,001002099008099000095000004051,21.270000,20.994000
700,000000099000098000089000000084,21.390000,21.151000
800,000000099002099000092000003072,21.400000,21.334000
900,000000099000099000084000001099,21.430000,21.346000
1000,000000099000099000097000001060,21.430000,21.324000
1100,000001099000099000099000000053,21.430000,21.396000
1200,000000099000100000090000000081,21.450000,21.398000
1300,000000100000100000090000000080,21.500000,21.425000
1400,000000099000099000090000001081,21.430000,21.410000
1500,000000100000099000090000001080,21.480000,21.432000
1600,000001100000099000099000000052,21.480000,21.431000
1700,000000100000100000084000000098,21.500000,21.435000
1800,000000100000100000090000000080,21.500000,21.438000
1900,000000100000100000090000000080,21.500000,21.441000
2000,000000100000100000090000000080,21.500000,21.445000
2100,000000100000100000090000000080,21.500000,21.440000
2200,000000100000100000090000000080,21.500000,21.436000
2300,000000100000100000097000000059,21.500000,21.434000
2400,000000100000099000090000001080,21.480000,21.436000
2500,000000100001100000088000000085,21.490000,21.434000
2600,000000100001100000090000000079,21.490000,21.442000
2700,000000100000100000100000000050,21.500000,21.441000
2800,000000100001100000090000000079,21.490000,21.428000
2900,000000100000100000091000000077,21.500000,21.432000
3000,000000100001100000090000000079,21.490000,21.432000
3100,000000100000100000090000000080,21.500000,21.424000
3200,000000100000100000090000000080,21.500000,21.466000
3300,000000100000100000090000000080,21.500000,21.442000
3400,000000100000100000090000000080,21.500000,21.456000
3500,000000100000100000093000000071,21.500000,21.447000
3600,000000100000100000090000000080,21.500000,21.441000
3700,000000100000100000090000000080,21.500000,21.444000
3800,000000100000100000087000000089,21.500000,21.436000
3900,000000100000100000090000000080,21.500000,21.461000
4000,000000100000100000090000000080,21.500000,21.454000
4100,000000100000100000090000000080,21.500000,21.437000
4200,000000100000100000090000000080,21.500000,21.436000
4300,000000100000100000084000000098,21.500000,21.448000
4400,000000100000100000096000000062,21.500000,21.441000
4500,000000100000100000090000000080,21.500000,21.441000
4600,000000100000100000090000000080,21.500000,21.446000
4700,000000100000100000099000000053,21.500000,21.444000
4800,000000100000100000090000000080,21.500000,21.377000
4900,000000100000100000090000000080,21.500000,21.451000
5000,000000100000100000090000000080,21.500000,21.454000
5100,000000100000100000090000000080,21.500000,21.440000
5200,000000100000100000090000000080,21.500000,21.447000
5300,000000100000100000091000000077,21.500000,21.429000
5400,000000100000100000090000000080,21.500000,21.458000
5500,000000100000100000090000000080,21.500000,21.453000
5600,000000100000100000099000000053,21.500000,21.466000
5700,000000100000100000090000000080,21.500000,21.439000
5800,000000100000100000087000000089,21.500000,21.453000
5900,000000100000100000091000000077,21.500000,21.444000
6000,000000100000100000090000000080,21.500000,21.463000
6100,000000100000100000086000000092,21.500000,21.432000
6200,000000100000100000090000000080,21.500000,21.459000
6300,000000100000100000097000000059,21.500000,21.452000
6400,000000100000100000090000000080,21.500000,21.441000
6500,000000100000100000090000000080,21.500000,21.450000
6600,000000100000100000097000000059,21.500000,21.462000
6700,000000100000100000090000000080,21.500000,21.451000
6800,000000100000100000090000000080,21.500000,21.457000
6900,000000100000100000090000000080,21.500000,21.461000
7000,000000100000100000084000000098,21.500000,21.427000
7100,000000100000100000090000000080,21.500000,21.437000
7200,000000100000100000090000000080,21.500000,21.459000
7300,000000100000100000086000000092,21.500000,21.444000
7400,000000100000100000097000000059,21.500000,21.461000
7500,000000100000100000090000000080,21.500000,21.446000
7600,000000100000100000100000000050,21.500000,21.452000
7700,000000100000100000096000000062,21.500000,21.469000
7800,000000100000100000090000000080,21.500000,21.459000
7900,000000100000100000085000000095,21.500000,21.450000
8000,000000100000100000090000000080,21.500000,21.425000
8100,000000100000100000090000000080,21.500000,21.452000
8200,000000100000100000090000000080,21.500000,21.446000
8300,000000100000100000093000000071,21.500000,21.425000
8400,000000100000100000097000000059,21.500000,21.453000
8500,000000100000100000090000000080,21.500000,21.469000
8600,000000100000100000090000000080,21.500000,21.463000
8700,000000100000100000090000000080,21.500000,21.463000
8800,000000100000100000090000000080,21.500000,21.442000
8900,000000100000100000090000000080,21.500000,21.451000
9000,000000100000100000090000000080,21.500000,21.469000
9100,000000100000100000100000000050,21.500000,21.440000
9200,000000100000100000097000000059,21.500000,21.468000
9300,000000100000100000090000000080,21.500000,21.432000
9400,000000100000100000085000000095,21.500000,21.438000
9500,000000100000100000086000000092,21.500000,21.459000
9600,000000100000100000090000000080,21.500000,21.465000
9700,000000100000100000090000000080,21.500000,21.446000
9800,000000100000100000086000000092,21.500000,21.452000
9900,000000100000100000090000000080,21.500000,21.465000
10000,000000100000100000090000000080,21.500000,21.457000
